STATION,KM,DOWN,UP
CENTRAL,0,15,15
,1.025,80,50
REDFERN,1.299,80,50
,1.405,80,50
MACDONALDTOWN,2.476,80,70
NEWTOWN,3.1,80,70
,4.005,80,70
STANMORE,4.671,80,80
PETERSHAM,5.499,80,80
LEWISHAM,6.246,80,80
,6.255,100,80
SUMMER HILL,7.032,100,90
ASHFIELD,8.376,100,90
CROYDON,9.424,100,90
,10.06,80,90
BURWOOD,10.624,80,90
,11.53,80,90
STRATHFIELD,11.806,80,50
,12.03,65,50
,12.13,80,50
,12.195,80,50
HOMEBUSH,12.742,80,70
,12.873,80,70
FLEMINGTON,14.324,80,80
LIDCOMBE,16.606,80,80
,16.695,80,80
,16.775,80,80
,17.45,100,100
AUBURN,18.625,100,100
,19.575,100,100
,19.7,80,80
CLYDE,20.66,80,80
GRANVILLE,21.224,80,80
,21.465,75,80
,21.685,75,50
,21.85,80,50
,22.19,80,50
,22.397,80,80
HARRIS PARK,22.533,80,80
PARRAMATTA,23.206,80,80
,24,80,80
,24.645,80,65
,25,65,85
WESTMEAD,25.162,65,85
,25.3,100,85
,25.37,100,85
,26.075,100,115
,26.475,100,115
WENTWORTHVILLE,26.637,100,115
,28.045,100,115
PENDLE HILL,28.294,100,100
,28.365,100,100
,28.252,115,115
TOONGABBIE,29.962,115,115
,31.5,115,115
SEVEN HILLS,32.06,115,105
,32.22,90,105
,34,90,105
,34.265,100,100
,34.801,100,100
BLACKTOWN,34.874,100,100
,35,115,100
,35.745,115,100
DOONSIDE,38.592,115,115
,40.6,95,115
ROOTY HILL,40.905,95,115
,41.226,95,115
,41.25,115,115
,42.537,115,115
MT DRUITT,43.291,115,115
,46.696,115,115
,47.25,95,105
,47.28,95,105
ST MARYS,47.42,95,115
,47.9,115,115
WERRINGTON,49.084,115,115
,49.3,115,115
,50.567,115,105
,52.03,115,115
KINGSWOOD,52.702,115,115
,53.99,115,115
,54.7,80,115
PENRITH,55.086,80,80
,55.5,80,80
,56.794,80,80
,57.35,100,85
EMU PLAINS,57.439,100,85
,58.882,100,85
,58.883,80,80
,59.539,75,80
,60.785,80,75
,60.965,80,75
,61.703,80,75
,61.988,80,60
,62.046,75,75
LAPSTONE,63.617,75,75
,65.105,65,75
,65.563,75,65
,65.793,75,65
,66.8,70,75
,66.926,70,75
GLENBROOK,67.08,70,70
,67.147,75,70
,69.144,75,75
,71.427,85,75
BLAXLAND,71.484,85,75
,71.484,85,75
,72.744,70,85
,72.78,70,85
,73.085,85,70
,74.035,70,85
WARRIMOO,74.296,70,70
,75.313,70,70
,76.259,75,75
,77.278,65,75
VALLEY HEIGHTS,77.41,65,75
,77.563,65,75
,79.294,65,65
,79.419,55,70
,79.566,55,70
SPRINGWOOD,79.669,55,65
,79.776,55,65
,80.263,65,70
,80.449,65,70
,81.657,65,75
,81.722,65,75
,82.546,60,65
,82.916,65,60
FAULCONBRIDGE,82.962,65,70
,83.195,70,70
,84.617,70,70
,84.761,70,65
,86.073,65,70
LINDEN,86.805,65,65
,87.81,65,65
,88.752,65,65
,89.95,55,60
WOODFORD,90.366,55,60
,90.579,70,60
,90.629,70,60
,90.836,75,70
,90.91,75,70
,92.099,65,75
,92.733,65,65
,93.411,60,70
HAZELBROOK,93.473,60,70
,93.671,65,70
,94.256,65,70
,95.177,75,65
LAWSON,96.033,75,75
,96.749,65,75
BULLABURRA,97.685,65,65
,97.76,65,65
,98.107,65,65
,99.726,80,65
,102.251,60,75
WENTWORTH FALLS,102.614,60,60
,102.858,60,60
,102.909,80,80
,104.735,65,80
,107.299,60,65
LEURA,107.592,60,60
,107.651,60,60
,107.739,65,65
,109.211,65,65
,109.402,55,50
KATOOMBA,109.943,55,50
,110.064,55,50
,110.132,65,65
,113.607,75,65
,114.116,100,75
,115.727,100,115
MEDLOW BATH,115.803,100,80
,116.2,70,80
,116.219,70,80
,116.853,60,75
,117.243,80,60
,119.467,65,80
BLACKHEATH,120.724,65,65
,121.6,70,65
,121.655,70,65
,124.455,75,70
,124.519,75,70
,125.05,75,75
,126.595,75,75
MT. VICTORIA,126.72,75,40
,126.86,65,40
,127.135,70,40
,127.58,70,40
,128.023,70,70
,128.091,90,90
,129.233,95,90
,131.958,85,105
,132.635,85,65
,132.829,80,80
BELL,137.126,80,80
,137.387,80,80
,137.92,110,80
,138.152,110,80
,139.77,75,100
,140.854,65,75
,141.099,65,75
,141.484,70,70
NEWNES JUNCTION,141.763,70,70
,143.549,70,70
,143.554,85,85
,145.394,70,85
,145.406,70,85
,150.587,70,70
ZIG ZAG,150.937,70,70
,150.998,70,70
,151.15,50,50
,152.268,70,50
,153.144,70,80
,154.305,75,90
,155.479,75,90
LITHGOW,155.781,75,70
,155.986,75,70
,156.016,80,85
,158.753,90,85
,159.11,90,95
,159.11,100,100
,160.067,100,100
,160.067,110,110
,160.8,110,110
,160.8,140,140
,164.6,95,140
,164.6,95,140
,164.8,70,95
,164.8,70,95
,166.876,85,70
,166.876,85,70
,168.661,85,85
,168.661,90,90
,171.005,75,90
,171.005,75,90
WALLERAWANG,171.261,75,75
,171.929,85,75
,172.582,120,85
,175.195,80,120
,177.332,100,80
,178.837,110,100
RYDAL,181.4,110,110
,183.842,75,110
,185.878,65,75
SODWALLS,188.6,65,65
,194.538,60,65
,197,65,60
,197.586,70,65
,198.173,85,70
TARANA,198.274,85,85
,198.872,85,85
,198.872,105,105
,201.577,105,105
,202.85,80,80
,205.383,80,80
,205.383,105,105
,207.699,105,105
,207.699,75,75
,211.164,75,75
,211.164,105,105
,212.963,85,105
,212.963,85,105
LOCKSLEY,213.743,85,85
,214.63,65,85
,214.63,65,85
,219.7,75,70
,219.7,75,70
,221.97,75,75
,223.32,80,80
,224.17,95,80
,224.63,95,80
BREWONGLE,224.987,95,120
,225.03,135,120
LCS,225.61,135,120
,227,145,140
,227.918,140,140
,228.815,150,140
,228.815,150,140
,230.811,160,150
,232.749,160,150
,232.835,120,85
RAGLAN,233.053,120,85
,234.758,120,85
,234.758,105,80
,236.132,105,80
KELSO,237.665,105,130
,238.904,105,130
,239.318,70,100
BATHURST,239.871,70,70
,240,95,70
,241.364,100,95
ORTON PARK,244.565,100,100
LCS,245.563,100,100
,246.551,75,100
,251.6,65,65
,251.925,75,65
GEORGES PLAINS,251.949,75,75
,255.111,55,75
,257.681,60,55
,258.73,65,60
,260.069,85,65
,262.9,70,85
WIMBLEDON,262.903,70,70
,263.658,85,70
,266.724,75,85
,267.272,70,75
NEWBRIDGE,273.76,70,70
,276.524,70,70
,276.524,85,75
,278.485,70,75
,280.082,70,75
,280.736,75,70
,281.841,75,70
,287,70,75
,287.306,70,75
,287.333,95,95
,288.623,95,95
BLAYNEY,290.37,95,105
,290.483,60,105
,290.695,90,60
,290.9,90,60
,293.501,85,90
,295.61,75,85
,296.262,105,75
POLONA,297.202,105,105
,297.37,130,105
CLCS,298.94,130,130
,301.084,100,130
,301.357,95,95
,302.136,85,95
,302.457,105,85
MILLTHORPE,302.562,105,105
,304.6,100,105
,305.027,95,100
,305.36,150,95
SPRING HILL,308.713,150,150
,314.762,150,150
,314.762,85,85
,316.015,85,85
,316.015,105,105
,318.5,105,105
,318.92,105,85
LCS,319.09,105,85
LCS,319.52,105,85
,320.17,105,85
LCS,320.71,105,85
ORANGE EAST FORK JUNCTION,320.84,105,85
,321.617,85,85
ORANGE,322.624,85,85
,322.753,50,85
,322.887,50,80
,324.012,105,100
,324.597,125,105
,326.524,115,125
,327.213,100,115
,327.807,90,100
,328.299,85,90
,328.845,90,85
,329.454,130,90
LCS,332.621,120,120
LCS,332.681,120,120
LCS,333.627,120,120
LCS,333.687,120,120
,334.973,160,130
,339.085,115,160
,339.967,125,115
LCS,340.53,120,120
LCS,340.59,120,120
,341.977,110,125
,342.609,95,110
,345.732,100,95
,347.3,110,100
,347.941,135,110
,350.297,115,135
,350.931,125,115
,352.163,160,120
,354.2,160,120
,354.509,110,110
,356.22,115,110
,358.495,105,115
,358.928,155,105
,363.542,95,155
,364.592,100,95
,367.024,145,100
,369.743,140,145
,372.166,135,140
,373.145,125,135
,374.442,100,125
,376.595,100,100
,377,100,100
,377.15,100,100
,377.965,110,100
LCS,378.719,95,95
STUART TOWN,379.506,95,95
LCS,380.1,95,95
,380.644,145,110
,382.314,110,145
,384.366,100,110
,385.363,135,100
,388.346,145,135
LCS,388.528,120,115
,389.2,120,115
,390.605,140,145
,391.873,130,140
,394.323,85,130
,396.087,95,85
,400.067,80,95
,401.173,80,80
,401.673,85,80
,403.326,110,85
,404.518,120,110
,406.413,120,120
,406.628,100,95
,407.22,100,95
,407.568,115,100
,409.971,115,115
WELLINGTON,411.809,115,50
,412.795,50,50
,413.06,100,50
,413.9,105,100
,415.697,145,105
,418.223,150,145
,421.009,125,150
,421.868,95,125
,422.451,100,95
,423.504,125,100
,424.061,145,125
,425.347,160,145
LCS,426.495,120,120
LCS,426.555,120,120
,427.52,120,160
COMBO,427.572,120,120
,431.443,105,120
,433.187,80,105
,434,80,80
,434.331,130,115
GEURIE,434.456,130,115
,436.292,115,115
,437.754,115,115
,438.247,125,115
,438.892,125,115
,439.635,130,125
,440.412,155,130
WONGARBON,444.418,155,155
,447.396,150,155
,448.503,145,150
,451.758,155,145
LCS,457.382,140,140
LCS,459.387,140,140
,460.134,60,155
DUBBO,462.209,60,60
